C:\Users\udesarrollo2\Downloads\One\SpringFarmacia\src\main\java\com\spring\service\CtaPlazoServiceImpl.java
C:\Users\udesarrollo2\Downloads\One\SpringFarmacia\src\main\java\com\spring\dao\MedicamentoDAOImpl.java
C:\Users\udesarrollo2\Downloads\One\SpringFarmacia\src\main\java\com\spring\service\MedicamentoService.java
C:\Users\udesarrollo2\Downloads\One\SpringFarmacia\src\main\java\com\spring\controller\CtaPlazoController.java
C:\Users\udesarrollo2\Downloads\One\SpringFarmacia\src\main\java\com\spring\controller\Pruebaitextpdf.java
C:\Users\udesarrollo2\Downloads\One\SpringFarmacia\src\main\java\com\spring\dao\CtaPlazoDAOImpl.java
C:\Users\udesarrollo2\Downloads\One\SpringFarmacia\src\main\java\com\spring\dao\LaboratorioDAOImpl.java
C:\Users\udesarrollo2\Downloads\One\SpringFarmacia\src\main\java\com\spring\service\LaboratorioService.java
C:\Users\udesarrollo2\Downloads\One\SpringFarmacia\src\main\java\com\spring\entity\Laboratorio.java
C:\Users\udesarrollo2\Downloads\One\SpringFarmacia\src\main\java\com\spring\service\LaboratorioServiceImpl.java
C:\Users\udesarrollo2\Downloads\One\SpringFarmacia\src\main\java\com\spring\controller\LaboratorioController.java
C:\Users\udesarrollo2\Downloads\One\SpringFarmacia\src\main\java\com\spring\service\CtaPlazoService.java
C:\Users\udesarrollo2\Downloads\One\SpringFarmacia\src\main\java\com\spring\dao\LaboratorioDAO.java
C:\Users\udesarrollo2\Downloads\One\SpringFarmacia\src\main\java\com\spring\entity\CtaPlazo.java
C:\Users\udesarrollo2\Downloads\One\SpringFarmacia\src\main\java\com\spring\dao\CtaPlazoDAO.java
C:\Users\udesarrollo2\Downloads\One\SpringFarmacia\src\main\java\com\spring\entity\Medicamento.java
C:\Users\udesarrollo2\Downloads\One\SpringFarmacia\src\main\java\com\spring\service\MedicamentoServiceImpl.java
C:\Users\udesarrollo2\Downloads\One\SpringFarmacia\src\main\java\com\spring\controller\MedicamentoController.java
C:\Users\udesarrollo2\Downloads\One\SpringFarmacia\src\main\java\com\spring\dao\MedicamentoDAO.java
C:\Users\udesarrollo2\Downloads\One\SpringFarmacia\src\main\java\com\spring\entity\CtaPlazoReporte.java
